{

    "form_details":[
        {
            "salutations":"Shri",
            "surname":"Perala",
            "first_name":"Surya Viswanath",
            "middle_name":"S V S",
            "alternate_name":"No",
            "gender":"Male",
            "DOB":"23/04/1996",
            "DOP_Mother_only":"No",
            "DOP_father_surname":"Perala",
            "DOP_father_first_name":"Prabhu",
            "DOP_father_middle_name":"Seeta Rama",          
            "display_name":"Father",
            "Address_line_one":"9-36-4 opp. Darshan Residency",
            "Address_line_two":"Andhra Bank rd, Maddilapalem",
            "Address_line_three":"Maddilapalem, Visakhapatnam"
        }



    ]


}