{
    "DOB": "2021-04-15",
    "DOP_father_first_name": "fnds",
    "DOP_father_middle_name": "fsdf",
    "DOP_father_surname": "vdsf",
    "DOP_mother_first_name": "fdsf",
    "DOP_mother_middle_name": "fdsfds",
    "aadhar_number": "FDDSF",
    "address_line_five": "nvn",
    "address_line_four": "vnkjxck",
    "address_line_one": "vcjxn",
    "address_line_three": "nvcxn",
    "address_line_two": "vnkcx",
    "address_of_communication": "residence",
    "alias_": "true",
    "alias_first_name": "fds",
    "alias_middle_name": "fdsfdsf",
    "alias_surname": "df",
    "alias_title": "Shri",
    "country_code": "+91",
    "country_name": "india",
    "email_id": "sunil.pandvd22@gmail.com",
    "enrollment_number": "ENROLL",
    "gender": "Female",
    "mobile_number": "9959907940",
    "motherSingleParent_": "false",
    "name_on_aadhar": "NAME",
    "office_address": "true",
    "office_address_line_five": "nfjkdnj",
    "office_address_line_four": "fdsknsjn",
    "office_address_line_one": "fds",
    "office_address_line_six": "fndsks",
    "office_address_line_three": "fndss",
    "office_address_line_two": "nfds",
    "office_country_name": "inidia",
    "office_pincode": "520010",
    "office_state": "fkds",
    "original_first_name": "fds",
    "original_middle_name": "fdskf",
    "original_surname": "hbfdsh",
    "original_title": "Shri",
    "pan_card_abbrevation": "fdssfs",
    "pincode": "520010",
    "ra_address_line_five": "FFNKSDN",
    "ra_address_line_four": "FDSD,F",
    "ra_address_line_one": "FSD,",
    "ra_address_line_three": "FDS",
    "ra_address_line_two": "FDS",
    "ra_first_name": "FDSN",
    "ra_middle_name": "FDSN",
    "ra_pincode": "520010",
    "ra_state": "AP",
    "ra_surname": "FSD",
    "ra_title": "Smt",
    "registration_number": "fsdfdsf",
    "selection_name": "Mothername",
    "source_of_income": "Income from House property",
    "state": "ap",
    "status_of_applicant": "Body of Individuals",
    "std_code": "+91",
    "DOP_mother_surname": "fdsfs"
}